lecoz,https://github.com/ianlcz/CCNA/blob/master/B2
TABBARA,https://github.com/NorthBlue333/network-b2
thys,https://github.com/antoine33520/CCNA2
giovannangeli,https://github.com/Celestarien/reseau_back_to_basics
PAPON,https://github.com/WhiteSlimes/ReseauB2
Usereau,https://gitlab.com/Saluc00/tp-reseau-b2/tree/master/1
léveil,https://github.com/FlorianLeveil/RESEAU_B2/blob/master/TP-1.md
REGNAULT,https://github.com/RegnaultQuentin/CCNA-2019
Requena,https://github.com/lucasreq/courses_network
larrieu,https://github.com/maximelarrieu/b2a_network_tps
DIAS,https://github.com/StevenDias33/B2_Network
mouret,https://github.com/vivimouret29/TP-Reseaux/tree/master/TP1%20Back%20to%20basics
feydit,https://github.com/RemiFeydit/B2Reseau/tree/master/TP1
FARGUES,https://github.com/ManonFargues/tpreseauB2
Gillot,https://github.com/WilliamGillot/TPReseau/blob/master/Tp1.md
mouchague,https://github.com/Lucasmouchague/ccna_mouchague_lucas/tree/master/B2
DEMANECHE,https://gitlab.com/AntoninDemaneche/r-seaux/tree/master/TP%201
DURAND,https://github.com/antoineDurand82/TP-Reseau-B2
boisseau,https://github.com/boiss79/TP1_Reseau
Bouffartigue,https://github.com/WhiteSlimes/ReseauB2
TROUVAT,https://github.com/WhiteSlimes/ReseauB2
Marques,https://github.com/MrGogo400/B2-Reseau/blob/master/Rendu-TP1.md
GIRARDEAU,https://github.com/LouisGi33/CCNA2/tree/master
Fourfooz, https://github.com/ombrax2796/B2-R-seauxTP1/blob/master/README.md
castera,https://github.com/JulienCASTERA/Reseaux_B2
FEUGERE,https://github.com/maximelarrieu/b2a_network_tps/tree/master/TP1
delas,https://github.com/theoDELAS/B2_Reseau_TP1
BANGARIGADU, https://github.com/Byeshwin19/TP_CCNA-B2/tree/master/TP1
boueix,https://gitlab.com/hboueix/TP-Reseaux
delbrel,https://github.com/antoinedelbrel/b2-tp1-reseaux
delbrel,https://github.com/antoinedelbrel/b2-tp1-reseaux
EDURAND,http://git.ynov-bordeaux.com/emmadrd912/CCNA/tree/master
verrier,https://gitlab.com/oliverrier/laboreseau/blob/master/TP1%20Back%20to%20basics.md
malbec,https://github.com/thomasmlc/TP1-reseaux
ceberio,https://github.com/PierreYnov/B2_CCNA_TP1
vicente,https://github.com/Soteded/TP-Reseau-B2/tree/master/TP1-Back_to_Basic
Menard,https://github.com/guillaumemen/TP
dumont,https://github.com/akhadimer/B2-Reseaux-TPs/tree/master/TP1-BackToBasics
CASELLES,https://github.com/MathieuCaselles/b2/tree/master/reseau/rendu_tp/tp1
lenaour,https://github.com/tlnkorr/b2_network_tp1
salles,https://github.com/Sascha40/Network_Homework_1/tree/master
bernard,https://github.com/Serponne/Reseau-B2/tree/master/tp1
laborde,https://gitlab.com/Genisys/ccna
MILANESE,https://gitlab.com/djkenyt/exo1reseau/blob/master/README.md
depaire,https://github.com/wewlr17/TP1-Back-to-basics-Reseau-
lacoste,https://github.com/Llacoste2000/B2R-seau/tree/master/TP1
VENDEE,https://github.com/njkf/TP-r-seaux,4
aboulicam,https://github.com/Mockinbrd/B2_Reseaux_2019,6
PETIT,https://github.com/UndefinedThing/reseau_b2/blob/master/README.md,7
maury,https://github.com/louisMAURY/b2_reseau_2019,8
